{
  "keywords": [
    "contact",
    "contact form",
    "email",
    "send email",
    "contact martin ivanov",
    "contact theophagyst",
    "contact theophagÿst"
  ],
  "description": "Submit the form below to drop me a message and say hi. I will try to respond as soon as possible."
}