{
  "keywords": [
    "videos",
    "video",
    "clips",
    "video editing",
    "videography",
    "videographer",
    "theophagÿst",
    "theophagyst",
    "martin ivanov",
    "martin ivanov's theophagÿst"
  ],
  "description": "These are some of the videos I have created to promote my music endeavors and at the same time experiment with chroma key, color grading and learning video production."
}