{
  "keywords": [
    "tony macalpine",
    "tony macalpine tribute album",
    "theophagyst",
    "theophagÿst",
    "martin ivanov",
    "martin ivanov's theophagÿst",
    "violent machine",
    "tribute to tony macalpine",
    "stepan bahdikyan"
  ],
  "description": "This album was not planned, it just happened. In early 2020 I decided to record, just for fun, a cover version of Tony Macalpine's \"Tears of Sahara\" and later on \"Key to the City\" followed suit. In the next couple of months I recorded 9 more songs and the album was finished"
}