[
  "the-mean-season",
  "the-house-i-used-to-live-in",
  "violent-machine-a-tribute-to-tony-macalpine",
  "kinaesthetic-equilibrista",
  "mmxxi",
  "into-the-blues",
  "j-s-a-tribute-to-joe-satriani",
  "theophag-st"
]
